<svg xmlns="http://www.w3.org/2000/svg" width="266" height="75.257" viewBox="0 0 266 75.257">
  <g id="Grupo_210" data-name="Grupo 210" transform="translate(-827 -3826.218)">
    <g id="Grupo_209" data-name="Grupo 209">
      <g id="Grupo_192" data-name="Grupo 192">
        <g id="Grupo_183" data-name="Grupo 183">
          <g id="Grupo_182" data-name="Grupo 182">
            <path id="Trazado_49" data-name="Trazado 49" d="M830.942,3868.094a7.879,7.879,0,0,1-3.942-1.2l.75-2.457a5.834,5.834,0,0,0,3.271,1.133c.958,0,1.325-.447,1.325-1.022,0-.606-.3-1.021-2.091-1.739-2.058-.83-2.776-2.027-2.776-3.431,0-1.708,1.388-3.367,4.117-3.367a6.419,6.419,0,0,1,3.271.909l-.686,2.426a5.262,5.262,0,0,0-2.585-.957c-.989,0-1.388.462-1.388.941,0,.766.59,1.021,2.058,1.644,2.187.925,2.84,1.979,2.84,3.479C835.106,3866.323,833.75,3868.094,830.942,3868.094Z" fill="#fff"/>
          </g>
        </g>
        <g id="Grupo_185" data-name="Grupo 185">
          <g id="Grupo_184" data-name="Grupo 184">
            <path id="Trazado_50" data-name="Trazado 50" d="M845.574,3868.094a5.721,5.721,0,0,1-5.937-6.032,5.816,5.816,0,0,1,6.049-6.048,5.734,5.734,0,0,1,5.936,6.048A5.821,5.821,0,0,1,845.574,3868.094Zm.048-9.655c-1.851,0-3.1,1.516-3.1,3.623,0,2.091,1.245,3.623,3.1,3.623s3.1-1.532,3.1-3.623C848.718,3859.955,847.473,3858.439,845.622,3858.439Z" fill="#fff"/>
          </g>
        </g>
        <g id="Grupo_187" data-name="Grupo 187">
          <g id="Grupo_186" data-name="Grupo 186">
            <path id="Trazado_51" data-name="Trazado 51" d="M866.477,3867.9l-.143-5.745-3.24,4.1h-.287l-3.271-4.1-.112,5.745h-2.617l.542-11.778.367-.031,5.3,6.686,5.17-6.686.367.031.558,11.778Z" fill="#fff"/>
          </g>
        </g>
        <g id="Grupo_189" data-name="Grupo 189">
          <g id="Grupo_188" data-name="Grupo 188">
            <path id="Trazado_52" data-name="Trazado 52" d="M880.231,3868.094a5.721,5.721,0,0,1-5.936-6.032,5.815,5.815,0,0,1,6.048-6.048,5.734,5.734,0,0,1,5.936,6.048A5.82,5.82,0,0,1,880.231,3868.094Zm.048-9.655c-1.851,0-3.1,1.516-3.1,3.623,0,2.091,1.245,3.623,3.1,3.623s3.1-1.532,3.1-3.623C883.375,3859.955,882.13,3858.439,880.279,3858.439Z" fill="#fff"/>
          </g>
        </g>
        <g id="Grupo_191" data-name="Grupo 191">
          <g id="Grupo_190" data-name="Grupo 190">
            <path id="Trazado_53" data-name="Trazado 53" d="M894.528,3868.094a7.882,7.882,0,0,1-3.942-1.2l.75-2.457a5.837,5.837,0,0,0,3.271,1.133c.958,0,1.325-.447,1.325-1.022,0-.606-.3-1.021-2.091-1.739-2.058-.83-2.776-2.027-2.776-3.431,0-1.708,1.388-3.367,4.117-3.367a6.416,6.416,0,0,1,3.271.909l-.685,2.426a5.269,5.269,0,0,0-2.586-.957c-.989,0-1.388.462-1.388.941,0,.766.59,1.021,2.059,1.644,2.186.925,2.84,1.979,2.84,3.479C898.693,3866.323,897.336,3868.094,894.528,3868.094Z" fill="#fff"/>
          </g>
        </g>
      </g>
      <g id="Grupo_194" data-name="Grupo 194">
        <g id="Grupo_193" data-name="Grupo 193">
          <rect id="Rectángulo_57" data-name="Rectángulo 57" width="1.025" height="75.257" transform="translate(907.419 3826.218)" fill="#fff"/>
        </g>
      </g>
      <g id="Grupo_208" data-name="Grupo 208">
        <g id="Grupo_196" data-name="Grupo 196">
          <g id="Grupo_195" data-name="Grupo 195">
            <path id="Trazado_54" data-name="Trazado 54" d="M940.89,3862.781c-2.654,2.71-4.687,3.614-10.5,4.292l-.791-1.524c3.784-.508,5.309-1.13,7.059-2.937,1.525-1.582,2.316-4.066,2.316-7.455,0-3.784-1.355-6.607-3.9-8.3-1.75-1.186-3.444-1.637-7.793-1.976v27.277c0,3.9,1.807,5.478,7,6.042v1.356H917.171v-1.186c4.574-.678,5.422-1.751,5.422-6.382v-21.233c0-4.293-.622-5.14-4.292-5.874v-1.13l4.292-.4c2.88-.282,5.139-.4,6.776-.4,9.036,0,14.684,4.519,14.684,11.86A11.083,11.083,0,0,1,940.89,3862.781Z" fill="#fff"/>
          </g>
        </g>
        <g id="Grupo_198" data-name="Grupo 198">
          <g id="Grupo_197" data-name="Grupo 197">
            <path id="Trazado_55" data-name="Trazado 55" d="M976.98,3879.554H953.373v-1.186c3.841-.282,4.914-1.3,4.914-4.518v-15.643c0-3.784-.565-4.687-3.5-5.648v-1.186H968v1.186c-3.9.4-5.026,1.412-5.026,4.462v16.321c0,3.106,1.525,4.292,5.535,4.292,4.179,0,6.268-1.977,8.245-7.794l1.186.339Z" fill="#fff"/>
          </g>
        </g>
        <g id="Grupo_200" data-name="Grupo 200">
          <g id="Grupo_199" data-name="Grupo 199">
            <path id="Trazado_56" data-name="Trazado 56" d="M1004.316,3879.554v-1.186q2.371-.508,2.372-1.864a5.138,5.138,0,0,0-.452-1.637l-1.92-4.688H992.8l-1.13,3.388A8.5,8.5,0,0,0,991.1,3876a1.8,1.8,0,0,0,.622,1.355c.621.508.96.622,3.219,1.017v1.186h-11.3v-1.186c2.936-.791,3.558-1.3,4.857-4.518l9.261-22.7h3.615l9.939,24.623c.508,1.3,1.242,1.864,3.106,2.6v1.186Zm-5.986-24.736-4.744,13.272h9.714Z" fill="#fff"/>
          </g>
        </g>
        <g id="Grupo_202" data-name="Grupo 202">
          <g id="Grupo_201" data-name="Grupo 201">
            <path id="Trazado_57" data-name="Trazado 57" d="M1044.949,3880.344c-3.05,0-5.14-.507-9.77-2.371l-.791-9.318,1.186-.565c1.412,3.727,2.259,5.252,3.9,7a9.022,9.022,0,0,0,6.1,3.106,6.05,6.05,0,0,0,5.986-6.1c0-2.372-1.016-3.784-4.292-5.987-4.913-3.275-6.664-4.575-8.584-6.438a8.867,8.867,0,0,1-3.106-7.229c0-5.874,4.235-9.883,10.56-9.883,2.429,0,4.236.4,8.133,1.92l1.186,8.189-1.186.565c-.9-1.638-1.808-3.106-2.6-4.348-1.864-2.767-4.179-4.18-6.777-4.18a5.253,5.253,0,0,0-5.422,5.422,8.025,8.025,0,0,0,1.921,4.913c1.468,1.582,2.993,2.71,8.979,6.608a17.968,17.968,0,0,1,3.5,2.711,9.148,9.148,0,0,1,2.316,6.324C1056.187,3876.278,1051.5,3880.344,1044.949,3880.344Z" fill="#fff"/>
          </g>
        </g>
        <g id="Grupo_204" data-name="Grupo 204">
          <g id="Grupo_203" data-name="Grupo 203">
            <path id="Trazado_58" data-name="Trazado 58" d="M1082.891,3879.554v-1.186q2.372-.508,2.372-1.864a5.137,5.137,0,0,0-.452-1.637l-1.92-4.688h-11.52l-1.13,3.388a8.5,8.5,0,0,0-.565,2.429,1.8,1.8,0,0,0,.622,1.355c.621.508.96.622,3.219,1.017v1.186h-11.295v-1.186c2.936-.791,3.558-1.3,4.857-4.518l9.261-22.7h3.615l9.939,24.623c.508,1.3,1.242,1.864,3.106,2.6v1.186Zm-5.986-24.736-4.744,13.272h9.714Z" fill="#fff"/>
          </g>
        </g>
        <g id="Grupo_207" data-name="Grupo 207">
          <g id="Grupo_206" data-name="Grupo 206">
            <g id="Grupo_205" data-name="Grupo 205">
              <path id="Trazado_59" data-name="Trazado 59" d="M1020.321,3864.143a2.544,2.544,0,1,1,2.543,2.52A2.512,2.512,0,0,1,1020.321,3864.143Z" fill="#fff"/>
            </g>
          </g>
        </g>
      </g>
    </g>
  </g>
</svg>
